<?xml version="1.0" encoding="utf-8"?>
<!-- Generator: Adobe Illustrator 16.0.4, SVG Export Plug-In . SVG Version: 6.00 Build 0)  -->
<!DOCTYPE svg PUBLIC "-//W3C//DTD SVG 1.1//EN" "http://www.w3.org/Graphics/SVG/1.1/DTD/svg11.dtd">
<svg version="1.1" id="Layer_1" xmlns="http://www.w3.org/2000/svg" xmlns:xlink="http://www.w3.org/1999/xlink" x="0px" y="0px"
	 width="36.861px" height="60px" viewBox="22.179 0 36.861 60" enable-background="new 22.179 0 36.861 60" xml:space="preserve">
<g>
	<g>
		<path fill-rule="evenodd" clip-rule="evenodd" fill="#FFFFFF" d="M49.085,15.104c0.81,0,1.604,0.002,2.399-0.002
			c0.117,0,0.122,0.074,0.142,0.155c0.325,1.294,0.651,2.588,0.978,3.882c0.526,2.088,1.054,4.176,1.581,6.265
			c0.011,0.042,0.03,0.081,0.06,0.16c0.979-3.502,1.947-6.972,2.919-10.45c0.618,0,1.236,0,1.877,0
			c-0.111,0.365-0.219,0.72-0.327,1.074c-1.123,3.649-2.248,7.298-3.366,10.948c-0.049,0.159-0.116,0.212-0.285,0.209
			c-0.632-0.011-1.265-0.007-1.897-0.002c-0.117,0-0.168-0.027-0.2-0.156c-0.528-2.145-1.066-4.287-1.601-6.43
			c-0.33-1.326-0.658-2.652-0.987-3.978c-0.006-0.023-0.022-0.044-0.05-0.094c-0.122,0.481-0.239,0.937-0.354,1.393
			c-0.748,2.98-1.495,5.961-2.244,8.941c-0.081,0.322-0.084,0.321-0.422,0.32c-0.614,0-1.228-0.005-1.841,0.004
			c-0.142,0.002-0.192-0.052-0.23-0.177c-1.195-3.964-2.395-7.928-3.593-11.892c-0.015-0.047-0.023-0.096-0.041-0.171
			c0.161,0,0.313,0,0.467,0c0.438,0,0.877,0.003,1.315-0.002c0.118-0.002,0.169,0.034,0.202,0.153
			c0.685,2.465,1.374,4.928,2.062,7.391c0.268,0.956,0.534,1.912,0.84,2.876C47.353,22.056,48.216,18.59,49.085,15.104z"/>
		<path fill-rule="evenodd" clip-rule="evenodd" fill="#FFFFFF" d="M23.857,17.239c0-4.082,0-8.144,0-12.235
			c0.072,0,0.139,0,0.205,0c1.039,0,2.078-0.01,3.118,0.003c0.874,0.012,1.742,0.08,2.562,0.429
			c1.077,0.458,1.647,1.262,1.704,2.437c0.036,0.731-0.072,1.42-0.534,2.012c-0.428,0.549-1.021,0.844-1.67,1.047
			c-0.085,0.026-0.17,0.055-0.287,0.094c1.067,0.133,1.936,0.531,2.461,1.478c0.324,0.585,0.406,1.216,0.337,1.881
			c-0.059,0.553-0.211,1.06-0.549,1.504c-0.449,0.59-1.077,0.894-1.768,1.092c-0.603,0.173-1.223,0.248-1.845,0.258
			c-1.208,0.019-2.417,0.007-3.626,0.007C23.936,17.246,23.906,17.242,23.857,17.239z M25.626,15.767
			c0.603,0.064,2.089,0.017,2.647-0.102c0.787-0.167,1.499-0.563,1.605-1.57c0.101-0.948-0.24-1.807-1.23-2.138
			c-0.419-0.14-0.87-0.217-1.312-0.25c-0.564-0.042-1.134-0.01-1.71-0.01C25.626,13.054,25.626,14.404,25.626,15.767z M25.63,6.424
			c0,1.301,0,2.542,0,3.829c0.806-0.038,1.599-0.053,2.387-0.121c0.421-0.036,0.835-0.173,1.153-0.479
			c0.564-0.542,0.605-1.224,0.437-1.924c-0.181-0.744-0.76-1.1-1.458-1.18C27.321,6.453,26.481,6.462,25.63,6.424z"/>
		<path fill-rule="evenodd" clip-rule="evenodd" fill="#FFFFFF" d="M22.179,40.021c0.254-0.593,0.493-1.152,0.732-1.713
			c1.476-3.456,2.953-6.912,4.425-10.371c0.053-0.123,0.111-0.168,0.246-0.166c0.494,0.008,0.989,0.009,1.483,0
			c0.142-0.003,0.21,0.042,0.264,0.17c0.938,2.231,1.882,4.461,2.824,6.69c0.73,1.731,1.46,3.463,2.19,5.194
			c0.023,0.056,0.045,0.113,0.077,0.195c-0.325,0-0.629,0-0.934,0c-0.275,0-0.551-0.008-0.826,0.004
			c-0.129,0.005-0.186-0.039-0.231-0.156c-0.364-0.92-0.737-1.836-1.102-2.755c-0.05-0.125-0.11-0.179-0.256-0.178
			c-1.866,0.006-3.733,0.006-5.6,0c-0.139,0-0.207,0.037-0.26,0.17c-0.362,0.92-0.737,1.835-1.101,2.755
			c-0.049,0.125-0.113,0.165-0.246,0.164C23.316,40.017,22.765,40.021,22.179,40.021z M28.269,29.471
			c-0.81,2.016-1.605,3.997-2.407,5.995c1.613,0,3.199,0,4.815,0C29.873,33.467,29.078,31.485,28.269,29.471z"/>
		<path fill-rule="evenodd" clip-rule="evenodd" fill="#FFFFFF" d="M57.481,30.564c0,0.597,0,1.177,0,1.771
			c-4.718,0-9.428,0-14.149,0c0-0.588,0-1.173,0-1.771C48.041,30.564,52.752,30.564,57.481,30.564z"/>
		<path fill-rule="evenodd" clip-rule="evenodd" fill="#FFFFFF" d="M29.661,54.048c0.163-0.58,0.315-1.116,0.466-1.654
			c0.279-1.004,0.56-2.009,0.833-3.015c0.039-0.144,0.099-0.202,0.255-0.19c0.222,0.017,0.446,0.004,0.692,0.004
			c-0.59,1.917-1.172,3.808-1.756,5.704c-0.35,0-0.693,0-1.071,0c-0.404-1.621-0.812-3.254-1.219-4.887
			c-0.01-0.002-0.021-0.003-0.03-0.005c-0.073,0.287-0.148,0.573-0.221,0.859c-0.326,1.3-0.653,2.599-0.975,3.9
			c-0.026,0.106-0.063,0.144-0.172,0.142c-0.282-0.006-0.563,0.004-0.846-0.007c-0.053-0.002-0.138-0.058-0.152-0.105
			c-0.565-1.853-1.124-3.706-1.684-5.561c-0.002-0.005,0.003-0.012,0.01-0.04c0.267,0,0.54-0.006,0.812,0.006
			c0.041,0.002,0.1,0.079,0.114,0.131c0.29,1.021,0.575,2.042,0.861,3.064c0.151,0.536,0.302,1.073,0.467,1.66
			c0.255-1.024,0.495-1.996,0.738-2.968c0.147-0.59,0.302-1.178,0.441-1.77c0.025-0.106,0.067-0.127,0.162-0.126
			c0.307,0.004,0.613,0.007,0.92-0.001c0.106-0.003,0.141,0.048,0.162,0.134c0.377,1.498,0.754,2.996,1.131,4.494
			C29.615,53.879,29.632,53.938,29.661,54.048z"/>
		<path fill-rule="evenodd" clip-rule="evenodd" fill="#FFFFFF" d="M54.349,51.437c-0.354,1.17-0.697,2.309-1.047,3.467
			c-0.277,0-0.558,0.006-0.837-0.006c-0.041-0.002-0.096-0.084-0.114-0.139c-0.295-0.91-0.585-1.821-0.876-2.731
			c-0.137-0.425-0.273-0.849-0.417-1.294c0.273,0,0.529-0.007,0.783,0.007c0.043,0.003,0.103,0.09,0.119,0.147
			c0.292,1.033,0.578,2.068,0.866,3.103c0.01,0.034,0.024,0.067,0.051,0.14c0.191-0.618,0.372-1.2,0.552-1.781
			c0.15-0.486,0.305-0.971,0.447-1.46c0.036-0.125,0.09-0.166,0.219-0.158c0.199,0.012,0.4,0.01,0.601,0
			c0.12-0.005,0.169,0.035,0.204,0.153c0.307,1.028,0.622,2.055,0.935,3.082c0.016,0.051,0.034,0.101,0.061,0.177
			c0.339-1.15,0.67-2.275,1.001-3.402c0.258,0,0.506,0,0.775,0c-0.163,0.502-0.323,0.99-0.48,1.48
			c-0.267,0.834-0.535,1.667-0.795,2.503c-0.044,0.143-0.11,0.198-0.263,0.185c-0.174-0.016-0.351-0.011-0.525-0.001
			c-0.132,0.007-0.19-0.029-0.232-0.168c-0.315-1.046-0.643-2.088-0.967-3.131C54.394,51.562,54.376,51.516,54.349,51.437z"/>
		<path fill-rule="evenodd" clip-rule="evenodd" fill="#FFFFFF" d="M49.487,52.312c0.02-0.601-0.215-0.941-0.667-1.017
			c-0.519-0.085-0.987,0.037-1.424,0.314c-0.031,0.02-0.061,0.041-0.113,0.077c-0.019-0.214-0.039-0.407-0.047-0.603
			c-0.002-0.035,0.044-0.088,0.081-0.108c0.633-0.346,1.299-0.459,2-0.258c0.636,0.183,0.921,0.646,0.944,1.231
			c0.039,0.974,0.011,1.951,0.011,2.94c-0.194,0-0.422,0-0.668,0c0-0.156,0-0.315,0-0.511c-0.08,0.079-0.134,0.134-0.189,0.187
			c-0.326,0.306-0.719,0.442-1.16,0.429c-0.192-0.006-0.389-0.025-0.573-0.074c-0.628-0.167-0.943-0.628-0.915-1.278
			c0.024-0.549,0.323-0.907,0.802-1.091c0.337-0.13,0.707-0.186,1.067-0.232C48.91,52.283,49.195,52.312,49.487,52.312z
			 M49.485,52.917c-0.272,0-0.552-0.034-0.818,0.01c-0.276,0.046-0.564,0.126-0.804,0.266c-0.365,0.214-0.347,0.75-0.002,1.001
			c0.248,0.181,0.528,0.187,0.807,0.129C49.326,54.188,49.585,53.668,49.485,52.917z"/>
		<path fill-rule="evenodd" clip-rule="evenodd" fill="#FFFFFF" d="M39.758,52.816c0.021,1.111-0.77,1.974-1.68,2.139
			c-1.119,0.203-2.208-0.379-2.494-1.576c-0.193-0.812-0.046-1.57,0.564-2.177c0.492-0.489,1.108-0.628,1.792-0.556
			c0.847,0.089,1.614,0.684,1.793,1.759C39.756,52.54,39.75,52.679,39.758,52.816z M36.362,52.822
			c-0.011,0.36,0.077,0.693,0.271,0.994c0.417,0.644,1.334,0.73,1.867,0.181c0.509-0.525,0.567-1.553,0.126-2.19
			c-0.508-0.732-1.505-0.721-1.992,0.025C36.438,52.133,36.348,52.465,36.362,52.822z"/>
		<path fill-rule="evenodd" clip-rule="evenodd" fill="#FFFFFF" d="M43.618,51.441c-0.351-0.102-0.665-0.213-1.014-0.157
			c-0.478,0.076-0.791,0.348-0.98,0.773c-0.218,0.492-0.217,0.996-0.019,1.49c0.32,0.796,1.146,0.964,1.865,0.669
			c0.058-0.023,0.112-0.055,0.19-0.093c0.022,0.222,0.05,0.43,0.061,0.639c0.001,0.033-0.063,0.087-0.108,0.102
			c-1.152,0.377-2.534-0.008-2.912-1.458c-0.222-0.85-0.052-1.643,0.617-2.262c0.477-0.44,1.065-0.577,1.703-0.499
			c0.189,0.023,0.378,0.067,0.563,0.115c0.043,0.012,0.103,0.081,0.101,0.12C43.674,51.065,43.643,51.25,43.618,51.441z"/>
		<path fill-rule="evenodd" clip-rule="evenodd" fill="#FFFFFF" d="M44.259,52.553c0-0.206-0.009-0.375,0.006-0.54
			c0.005-0.056,0.061-0.125,0.112-0.153c0.342-0.187,0.438-0.46,0.418-0.847c-0.035-0.674-0.01-1.352-0.01-2.028
			c0-0.062,0-0.123,0-0.194c0.263,0,0.51,0,0.778,0c0,0.688,0,1.38,0,2.116c0.188-0.143,0.342-0.26,0.532-0.404
			c0,0.208,0.012,0.375-0.007,0.539c-0.006,0.06-0.07,0.134-0.129,0.165c-0.321,0.177-0.409,0.436-0.397,0.8
			c0.029,0.889,0.01,1.778,0.01,2.668c0,0.067,0,0.136,0,0.217c-0.262,0-0.51,0-0.787,0c0-0.447,0-0.9,0-1.354
			c0-0.45,0-0.899,0-1.388C44.605,52.286,44.449,52.406,44.259,52.553z"/>
		<path fill-rule="evenodd" clip-rule="evenodd" fill="#FFFFFF" d="M34.906,51.376c-0.094-0.017-0.165-0.032-0.238-0.041
			c-0.695-0.083-1.021,0.315-1.184,0.823c-0.078,0.244-0.112,0.512-0.119,0.77c-0.016,0.649-0.005,1.3-0.005,1.964
			c-0.266,0-0.518,0-0.779,0c0-1.382,0-2.756,0-4.145c0.238,0,0.478,0,0.737,0c0,0.176,0,0.347,0,0.516
			c0.156-0.149,0.291-0.304,0.451-0.426c0.315-0.241,0.681-0.252,1.053-0.17c0.033,0.007,0.079,0.064,0.08,0.101
			C34.909,50.966,34.906,51.165,34.906,51.376z"/>
	</g>
</g>
</svg>
