<?xml version="1.0" encoding="utf-8"?>
<!-- Generator: Adobe Illustrator 16.0.0, SVG Export Plug-In . SVG Version: 6.00 Build 0)  -->
<!DOCTYPE svg PUBLIC "-//W3C//DTD SVG 1.1//EN" "http://www.w3.org/Graphics/SVG/1.1/DTD/svg11.dtd">
<svg version="1.1" id="Layer_1" xmlns="http://www.w3.org/2000/svg" xmlns:xlink="http://www.w3.org/1999/xlink" x="0px" y="0px"
	 width="82px" height="60px" viewBox="-0.19 0 82 60" enable-background="new -0.19 0 82 60" xml:space="preserve">
<g>
	<path fill="#FFFFFF" d="M39.73,20.165l-6.229-3.595c-0.247-0.144-0.571-0.145-0.824,0l-6.147,3.549l-12.7-7.33
		c-0.248-0.143-0.567-0.145-0.824,0l-12.784,7.38c-0.253,0.147-0.411,0.42-0.411,0.713v7.192c0,0.293,0.158,0.566,0.412,0.713
		l5.648,3.261l-5.649,3.263c-0.254,0.148-0.412,0.422-0.412,0.713v7.189c0,0.295,0.158,0.568,0.412,0.713l19.342,11.162
		c0.125,0.073,0.268,0.111,0.412,0.111c0.143,0,0.284-0.038,0.412-0.11l6.229-3.597c0.253-0.147,0.411-0.42,0.411-0.713v-6.525
		l5.648,3.262c0.246,0.145,0.579,0.145,0.825,0l6.23-3.598c0.253-0.146,0.411-0.42,0.411-0.712v-7.188
		c0-0.297-0.158-0.57-0.412-0.715l-5.647-3.26l5.647-3.261c0.254-0.146,0.412-0.419,0.412-0.712v-7.192
		C40.141,20.586,39.984,20.312,39.73,20.165z M39.15,20.973V27.4l-5.566-3.217l0.001-6.423L39.15,20.973z M33.583,39.324v-6.426
		l5.566,3.215v6.428L33.583,39.324z M32.596,32.898v6.436l-5.567,3.209v-6.429L32.596,32.898z M27.029,27.403v-6.428l5.567-3.215
		v6.432L27.029,27.403z M27.523,28.26l5.574-3.214l5.561,3.214l-5.567,3.215L27.523,28.26z M27.029,34.97v-5.853l5.065,2.926
		L27.029,34.97z M33.097,40.184l5.561,3.215l-5.567,3.216L27.525,43.4L33.097,40.184z M6.367,32.906v6.434l-5.565,3.209v-6.43
		L6.367,32.906z M7.359,23.622v-6.429l5.566-3.214v6.433L7.359,23.622z M26.038,28.546v6.431l-5.567-3.219l0.001-6.426
		L26.038,28.546z M20.471,24.186v-6.424l5.566,3.213v6.428L20.471,24.186z M26.038,43.688v6.428l-5.567-3.221v-6.42L26.038,43.688z
		 M19.984,47.757l5.559,3.213l-5.568,3.216l-5.563-3.213L19.984,47.757z M6.869,40.191l5.561,3.214l-5.567,3.213l-5.565-3.212
		L6.869,40.191z M12.925,36.119l-0.001,6.432l-5.566-3.219l0.001-6.427L12.925,36.119z M12.925,29.12v5.858l-5.071-2.931
		L12.925,29.12z M6.862,31.479l-5.565-3.214l5.569-3.211l5.563,3.212L6.862,31.479z M19.481,25.334l-0.001,6.43l-5.565,3.209v-6.426
		L19.481,25.334z M13.418,27.692l-5.562-3.213l5.573-3.214l5.558,3.213L13.418,27.692z M19.481,39.902v6.428l-5.565-3.216v-6.425
		L19.481,39.902z M13.427,43.977l5.559,3.213l-5.565,3.216l-5.566-3.216L13.427,43.977z M19.975,39.046l-5.565-3.212l5.575-3.214
		l5.56,3.213L19.975,39.046z M13.914,20.402l0.001-6.422l5.566,3.214v6.427L13.914,20.402z M26.039,36.691v5.853l-5.067-2.928
		L26.039,36.691z M6.369,17.763l-0.002,6.432l-5.565,3.21v-6.428L6.369,17.763z"/>
	<path fill="#FFFFFF" d="M48.575,12.062c0.705,0,1.215-0.209,1.658-0.679l0.127-0.136L49.59,10.41l-0.146,0.139
		c-0.268,0.25-0.468,0.414-0.814,0.414c-0.688,0-0.994-0.265-0.994-1.834c0-1.643,0.295-1.823,0.922-1.823
		c0.383,0,0.583,0.13,0.842,0.387l0.155,0.154l0.735-0.889l-0.135-0.129c-0.451-0.437-0.922-0.623-1.567-0.623
		c-1.487,0-2.241,0.983-2.241,2.923c0,0.946,0.186,1.675,0.549,2.166C47.272,11.804,47.837,12.062,48.575,12.062z"/>
	<path fill="#FFFFFF" d="M55.088,11.438l0.149-0.121L54.552,10.4l-0.161,0.127c-0.303,0.239-0.594,0.436-1.095,0.436
		c-0.702,0-0.979-0.222-1.021-1.457h3.014V8.982c0-1.868-0.689-2.776-2.107-2.776c-1.003,0-2.199,0.507-2.199,2.923
		c0,1.946,0.771,2.933,2.293,2.933C54.024,12.062,54.532,11.887,55.088,11.438z M53.159,7.251c0.557,0,0.82,0.181,0.848,1.239
		h-1.715C52.381,7.467,52.704,7.251,53.159,7.251z"/>
	<path fill="#FFFFFF" d="M57.714,7.873c0.257-0.22,0.693-0.536,1.087-0.536c0.338,0,0.465,0.051,0.465,0.597v3.992h1.228V7.652
		c0-0.527-0.16-0.92-0.479-1.167c-0.238-0.185-0.556-0.279-0.941-0.279c-0.515,0-1.002,0.206-1.484,0.627l-0.102-0.492h-1v5.584
		h1.229V7.873H57.714z"/>
	<path fill="#FFFFFF" d="M62.151,10.774c0,0.831,0.502,1.288,1.414,1.288c0.301,0,0.567-0.063,0.865-0.203l0.15-0.071l-0.202-0.769
		l-0.104-0.199l-0.209,0.083c-0.141,0.055-0.261,0.103-0.43,0.103c-0.15,0-0.257-0.022-0.257-0.315V7.41h1.067V6.342H63.38V4.75
		l-1.229,0.273v1.319H61.56V7.41h0.592V10.774L62.151,10.774z"/>
	<path fill="#FFFFFF" d="M66.985,7.979c0.312-0.281,0.586-0.441,1.017-0.441c0.089,0,0.17,0.009,0.229,0.025l0.227,0.062l0.14-1.292
		L68.448,6.28c-0.082-0.029-0.181-0.032-0.219-0.032c-0.494,0-0.941,0.209-1.361,0.64L66.76,6.342h-1v5.583h1.226V7.979z"/>
	<path fill="#FFFFFF" d="M72.458,11.926h1V6.342h-1.227v4.053c-0.404,0.352-0.777,0.537-1.078,0.537
		c-0.345,0-0.508-0.099-0.508-0.66v-3.93h-1.227v4.211c0,0.931,0.572,1.509,1.494,1.509c0.507,0,0.971-0.199,1.443-0.623
		L72.458,11.926z"/>
	<path fill="#FFFFFF" d="M80.069,6.206c-0.471,0-0.938,0.198-1.477,0.64c-0.229-0.419-0.626-0.64-1.159-0.64
		c-0.483,0-0.915,0.189-1.401,0.625L75.93,6.342h-0.997v5.584h1.229V7.873c0.41-0.36,0.738-0.536,1.002-0.536
		c0.281,0,0.404,0.024,0.404,0.597v3.992h1.228V7.833c0.383-0.321,0.737-0.496,1.005-0.496c0.279,0,0.402,0.024,0.402,0.597v3.992
		h1.228V7.652C81.429,6.733,80.934,6.206,80.069,6.206z"/>
	<path fill="#FFFFFF" d="M49.624,18.452c-0.32-0.238-0.748-0.449-1.254-0.449c-1.799,0-2.008,1.692-2.008,2.965
		c0,1.946,0.652,2.892,1.996,2.892c0.518,0,0.996-0.184,1.399-0.533l0.108,0.397h1.012v-7.92h-1.256v2.648H49.624z M48.604,19.113
		c0.412,0,0.791,0.271,1.02,0.473v2.689c-0.381,0.34-0.695,0.474-1.105,0.474c-0.468,0-0.837,0-0.837-1.844
		C47.681,19.2,48.032,19.113,48.604,19.113z"/>
	<path fill="#FFFFFF" d="M54.405,18.003c-1.03,0-2.262,0.507-2.262,2.923c0,1.974,0.771,2.934,2.357,2.934
		c0.771,0,1.293-0.175,1.861-0.624l0.155-0.123L55.813,22.2l-0.158,0.121c-0.312,0.239-0.613,0.438-1.133,0.438
		c-0.728,0-1.013-0.221-1.06-1.457h3.104v-0.523c0.002-1.055-0.217-1.789-0.668-2.242C55.546,18.183,55.043,18.003,54.405,18.003z
		 M54.384,19.05c0.578,0,0.854,0.183,0.878,1.236h-1.776C53.577,19.263,53.899,19.05,54.384,19.05z"/>
	<path fill="#FFFFFF" d="M61.293,22.121c0.002-1.317-0.873-1.661-1.693-1.88c-0.721-0.194-0.838-0.286-0.838-0.656
		c0-0.234,0.052-0.483,0.677-0.483c0.37,0,0.62,0.063,1.03,0.262l0.185,0.089l0.455-1.011l-0.162-0.088
		c-0.449-0.243-0.924-0.352-1.537-0.352c-1.362,0-1.846,0.863-1.846,1.602c0,1.244,0.852,1.615,1.49,1.787
		c0.887,0.238,1.01,0.332,1.01,0.771c0,0.375-0.132,0.607-0.783,0.607c-0.445,0-0.862-0.138-1.312-0.435l-0.179-0.117l-0.547,0.953
		l0.141,0.106c0.355,0.269,1.053,0.583,1.852,0.583C60.62,23.859,61.293,23.291,61.293,22.121z"/>
	<path fill="#FFFFFF" d="M63.21,17.499c0.466,0,0.83-0.354,0.83-0.806c0-0.466-0.352-0.817-0.818-0.817
		c-0.46,0-0.809,0.351-0.809,0.816c0,0.222,0.082,0.427,0.231,0.577C62.793,17.417,62.993,17.499,63.21,17.499z"/>
	<rect x="62.606" y="18.139" fill="#FFFFFF" width="1.254" height="5.584"/>
	<path fill="#FFFFFF" d="M69.747,23.665v-5.521h-1.014l-0.108,0.409c-0.351-0.294-0.861-0.543-1.386-0.543
		c-1.797,0-2.006,1.632-2.006,2.86c0,1.875,0.652,2.786,1.996,2.786c0.469,0,0.895-0.143,1.266-0.424v0.309
		c0,1.021-0.346,1.226-0.902,1.226c-0.689,0-1.166-0.237-1.54-0.47l-0.181-0.112l-0.532,0.986l0.157,0.1
		c0.697,0.438,1.328,0.617,2.18,0.617C69.03,25.886,69.747,25.118,69.747,23.665z M67.389,22.546c-0.485,0-0.837,0-0.837-1.739
		c0-1.612,0.316-1.687,0.922-1.687c0.405,0,0.779,0.262,1.021,0.473v2.478C68.114,22.412,67.799,22.546,67.389,22.546z"/>
	<path fill="#FFFFFF" d="M74.036,18.003c-0.529,0-1.033,0.208-1.532,0.633l-0.104-0.498h-1.02v5.584h1.255V19.67
		c0.231-0.194,0.703-0.538,1.124-0.538c0.346,0,0.486,0.054,0.486,0.598v3.992H75.5v-4.274
		C75.495,18.53,74.962,18.003,74.036,18.003z"/>
	<path fill="#FFFFFF" d="M79.936,22.192c-0.421,0.356-0.795,0.537-1.112,0.537c-0.352,0-0.528-0.102-0.528-0.66V18.14H77.04v4.211
		c0,0.931,0.589,1.509,1.535,1.509c0.522,0,1.002-0.202,1.492-0.63l0.105,0.494h1.018V18.14h-1.255V22.192z"/>
	<path fill="#FFFFFF" d="M49.677,30.343c-0.346-0.292-0.844-0.54-1.355-0.54c-1.768,0-1.972,1.633-1.972,2.86
		c0,1.875,0.642,2.787,1.958,2.787c0.459,0,0.875-0.142,1.238-0.421v0.305c0,1.021-0.337,1.229-0.881,1.229
		c-0.676,0-1.139-0.236-1.504-0.47l-0.184-0.116l-0.521,0.987l0.154,0.099c0.674,0.435,1.313,0.619,2.14,0.619
		c1.329,0,2.03-0.769,2.03-2.221V29.94h-0.998L49.677,30.343z M49.547,33.868c-0.372,0.339-0.681,0.472-1.081,0.472
		c-0.475,0-0.816,0-0.816-1.738c0-1.611,0.309-1.688,0.9-1.688c0.4,0,0.771,0.268,0.997,0.471V33.868z"/>
	<path fill="#FFFFFF" d="M55.266,30.245c-0.313-0.236-0.731-0.444-1.228-0.444c-1.766,0-1.971,1.693-1.971,2.967
		c0,1.944,0.643,2.891,1.961,2.891c0.506,0,0.975-0.182,1.371-0.528l0.104,0.394h0.999v-7.921h-1.236L55.266,30.245z M54.269,30.914
		c0.396,0,0.764,0.263,0.997,0.471v2.693c-0.373,0.34-0.681,0.473-1.081,0.473c-0.556,0-0.816-0.182-0.816-1.845
		C53.368,31,53.71,30.914,54.269,30.914z"/>
	<path fill="#FFFFFF" d="M59.987,33.148c-0.065,0.218-0.121,0.439-0.17,0.656c-0.049-0.226-0.104-0.457-0.156-0.654l-0.914-3.21
		h-1.338l1.738,5.583h0.11c-0.254,0.733-0.532,0.914-1.228,1.098l-0.195,0.052l0.285,1.047l0.185-0.036
		c1.093-0.227,1.59-0.479,2.128-2.107l1.811-5.635h-1.287L59.987,33.148z"/>
	<path fill="#FFFFFF" d="M65.741,29.803c-0.52,0-1.012,0.207-1.5,0.63l-0.104-0.495h-1.006v5.583h1.236V31.47
		c0.261-0.221,0.703-0.538,1.102-0.538c0.335,0,0.473,0.055,0.473,0.599v3.991h1.235v-4.274
		C67.177,30.329,66.653,29.803,65.741,29.803z"/>
	<rect x="68.759" y="29.94" fill="#FFFFFF" width="1.236" height="5.583"/>
	<path fill="#FFFFFF" d="M69.366,27.677c-0.453,0-0.797,0.352-0.797,0.817c0,0.452,0.346,0.806,0.785,0.806
		c0.467,0,0.817-0.347,0.817-0.806C70.172,28.028,69.825,27.677,69.366,27.677z"/>
	<path fill="#FFFFFF" d="M73.589,29.803c-0.904,0-1.533,0.296-2.029,0.585l-0.162,0.094l0.491,0.986l0.183-0.099
		c0.385-0.208,0.895-0.446,1.422-0.446c0.507,0,0.588,0.185,0.588,0.778v0.238h-0.264c-1.789,0-2.588,0.593-2.588,1.918
		c0,1.162,0.621,1.804,1.748,1.804c0.445,0,0.86-0.171,1.237-0.509l0.104,0.375h0.998v-3.971
		C75.317,30.393,74.735,29.803,73.589,29.803z M74.081,32.93v1.156c-0.326,0.357-0.648,0.53-0.985,0.53
		c-0.384,0-0.565-0.113-0.565-0.755c0-0.596,0.064-0.934,1.403-0.934h0.147V32.93z"/>
</g>
</svg>
