<?xml version="1.0" encoding="utf-8"?>
<!-- Generator: Adobe Illustrator 16.0.4, SVG Export Plug-In . SVG Version: 6.00 Build 0)  -->
<!DOCTYPE svg PUBLIC "-//W3C//DTD SVG 1.1//EN" "http://www.w3.org/Graphics/SVG/1.1/DTD/svg11.dtd">
<svg version="1.1" id="Layer_1" xmlns="http://www.w3.org/2000/svg" xmlns:xlink="http://www.w3.org/1999/xlink" x="0px" y="0px"
	 width="49.994px" height="60px" viewBox="5.003 0 49.994 60" enable-background="new 5.003 0 49.994 60" xml:space="preserve">
<path fill="#FFFFFF" d="M52.629,19.387V5h-8.591l-0.894,3.747c-1.315-0.816-2.711-1.515-4.174-2.078L38.559,5H30.02v0.003
	c-0.007,0-0.013-0.001-0.02-0.001C16.217,5.001,5.003,16.216,5.003,30c0,13.786,11.214,25,24.997,25s24.997-11.214,24.997-25
	C54.997,26.208,54.146,22.611,52.629,19.387z M54.091,30c0,2.904-0.516,5.689-1.462,8.271V21.73
	C53.575,24.31,54.091,27.096,54.091,30z M42.923,9.675l-1.569,6.584l-2.111-8.508C40.527,8.289,41.76,8.933,42.923,9.675z
	 M30,54.094C16.716,54.094,5.909,43.286,5.909,30S16.716,5.908,30,5.908c0.007,0,0.013,0,0.02,0v33.814h6.947V27.081l4.387,13.353
	l3.908-13.353v12.644h6.666l0.113-0.002C48.297,48.18,39.827,54.094,30,54.094z"/>
</svg>
