<?xml version="1.0" encoding="utf-8"?>
<!-- Generator: Adobe Illustrator 16.0.4, SVG Export Plug-In . SVG Version: 6.00 Build 0)  -->
<!DOCTYPE svg PUBLIC "-//W3C//DTD SVG 1.1//EN" "http://www.w3.org/Graphics/SVG/1.1/DTD/svg11.dtd">
<svg version="1.1" id="Layer_1" xmlns="http://www.w3.org/2000/svg" xmlns:xlink="http://www.w3.org/1999/xlink" x="0px" y="0px"
	 width="68.799px" height="60px" viewBox="-0.251 0 68.799 60" enable-background="new -0.251 0 68.799 60" xml:space="preserve">
<g>
	<path fill="#FFFFFF" d="M0.6,36.205h-0.731v2.794h68.025v-0.744h0.636v-2.677H0.6V36.205z M67.747,36.359v1.111H1.384v-1.111
		H67.747z"/>
	<path fill="#FFFFFF" d="M58.971,33.32h0.83l0.152-1.453l0.663,2.199h2.507l0.229-0.746h0.509l0.718-2.346l0.321,3.092h3.024
		l-0.077-0.743h0.7l-1.212-11.708h-3.241l-0.192,0.63h-0.305l-1.195,3.903l-1.314-4.356l-0.053-0.178h-3.242l-0.063,0.63h-0.635
		l-1.196,11.545l-0.031,0.277h3.026L58.971,33.32z M60.453,22.398l2.094,6.944l2.127-6.944h1.957l1.05,10.141h-1.649l-0.519-4.998
		l-0.682-0.065l-1.552,5.062h-1.48l-1.508-4.998l-0.682,0.065l-0.513,4.934h-1.647l1.05-10.142H60.453z"/>
	<path fill="#FFFFFF" d="M30.932,34.292c0.668,0,1.309-0.118,1.902-0.352c0.237-0.094,0.513-0.141,0.819-0.141
		c0.336,0,0.625,0.06,0.734,0.086c0.062,0.014,0.115,0.028,0.156,0.04l0.022,0.041h0.074l2.031,0.757V33.7l0.662,0.25V21.599h-3.196
		v0.63h-0.482v7.661c-0.446,0.05-0.876,0.154-1.279,0.312c-0.142,0.055-0.294,0.093-0.456,0.111v-8.714h-3.196v0.63h-0.713v11.316
		l0.943,0.394C29.535,34.163,30.237,34.289,30.932,34.292z M34.919,30.662v-8.28h1.632v10.438l-1.093-0.413
		c-0.017-0.008-0.032-0.013-0.077-0.026c-0.055-0.019-0.139-0.042-0.246-0.066c-0.163-0.038-0.42-0.086-0.722-0.098l-0.127-0.002
		c-0.367,0-0.708,0.061-1.011,0.181c-0.505,0.195-1.042,0.295-1.595,0.295c-0.411-0.002-1.037-0.056-1.683-0.301l-0.491-0.203
		l0.002-9.803h1.633v8.707l0.366,0.016c0.4,0.03,0.801-0.03,1.158-0.173c0.5-0.195,1.047-0.294,1.626-0.294
		c0.075,0,0.15,0.002,0.222,0.006L34.919,30.662z"/>
	<path fill="#FFFFFF" d="M18.778,34.07l0.125-0.002v-0.745h0.667v-3.199h-4.352l5.068-8.511h-9.341v0.619h-0.677v3.005h3.744
		L8.755,34.07H18.778z M13.842,30.907h4.945v1.633H10.97l5.067-8.513h-4.309v-1.632h7.181L13.842,30.907z"/>
	<path fill="#FFFFFF" d="M0.609,30.124v1.026h-0.744v2.916h6.876v-0.744h1.027v-6.46l-0.24-0.389
		c-0.112-0.179-0.32-0.439-0.677-0.663c-0.264-0.167-0.569-0.282-0.9-0.342c0.095-0.034,0.18-0.07,0.257-0.104
		c0.385-0.181,0.665-0.392,0.889-0.575c0.168-0.138,0.29-0.256,0.378-0.349l0.006-0.01c0.2-0.119,0.394-0.255,0.59-0.417
		c0.2-0.165,0.337-0.301,0.373-0.338l0.283-0.279L6.437,21.16l-0.254,0.254c-0.345-0.207-0.665-0.289-0.908-0.337
		c-0.261-0.052-0.528-0.076-0.842-0.076c-0.688,0.001-1.365,0.118-1.88,0.219c-0.283,0.059-0.575,0.129-0.87,0.209l-1.191,0.341
		v0.781l-0.743,0.213v5.952l0.32,0.4c0.089,0.113,0.292,0.33,0.639,0.519c0.381,0.209,0.864,0.325,1.359,0.325
		c0.543,0,1.135-0.132,1.759-0.394v0.56L0.609,30.124z M4.988,23.574l-0.1-0.125l-0.152-0.017c-0.363-0.054-1.072,0.034-1.511,0.115
		L2.91,23.61v3.25l0.489-0.13c0.146-0.037,0.306-0.093,0.473-0.167c0.581-0.248,1.073-0.363,1.547-0.364
		c0.375,0,0.746,0.099,1.017,0.272c0.241,0.15,0.373,0.323,0.429,0.411l0.122,0.199v5.456H1.393v-1.633l3.962,0.002v-3.134
		L4.84,27.939c-0.096,0.032-0.205,0.071-0.325,0.125c-0.562,0.24-1.091,0.362-1.571,0.363c-0.518,0-0.874-0.154-1.04-0.246
		c-0.26-0.142-0.398-0.296-0.446-0.357l-0.179-0.225v-5.244l0.599-0.171c0.201-0.053,0.51-0.13,0.837-0.196
		c0.428-0.088,1.071-0.205,1.721-0.206c0.257,0,0.477,0.019,0.689,0.058c0.218,0.044,0.456,0.109,0.713,0.278
		c0.041,0.026,0.082,0.056,0.126,0.094l0.239,0.194l0.224-0.167l1.178,1.148l-0.023,0.02c-0.201,0.164-0.432,0.337-0.751,0.486
		c-0.211,0.095-0.452,0.184-0.782,0.187H6.043c-0.227,0-0.466-0.062-0.657-0.171C5.24,23.832,5.102,23.715,4.988,23.574z
		 M3.692,25.793v-0.824c0.146,0.157,0.315,0.291,0.493,0.39c0.115,0.064,0.24,0.118,0.37,0.158
		C4.279,25.579,3.993,25.67,3.692,25.793z"/>
</g>
</svg>
