<?xml version="1.0" encoding="utf-8"?>
<!-- Generator: Adobe Illustrator 16.0.4, SVG Export Plug-In . SVG Version: 6.00 Build 0)  -->
<!DOCTYPE svg PUBLIC "-//W3C//DTD SVG 1.1//EN" "http://www.w3.org/Graphics/SVG/1.1/DTD/svg11.dtd">
<svg version="1.1" id="Layer_1" xmlns="http://www.w3.org/2000/svg" xmlns:xlink="http://www.w3.org/1999/xlink" x="0px" y="0px"
	 width="80.551px" height="60px" viewBox="-12.089 0 80.551 60" enable-background="new -12.089 0 80.551 60" xml:space="preserve">
<g>
	<g>
		<path fill="#FFFFFF" d="M46.944,8.58L36.102,9.86c-1.422,0.122-1.949-0.487-1.584-1.827c1.033-2.07,0.529-3.085-1.525-3.045
			c-5.941,0.187-11.819,0.969-17.599,2.618c-1.948,0.771-3.167,2.355-3.651,4.75c-1.123,4.998-1.804,10.146-1.951,15.469
			c0.061,3.817,1.644,6.821,6.578,8.04c6.516,1.332,12.668,1.668,19.184,0.853c4.244-0.325,7.594-2.212,9.139-5.968
			c2.24-5.686,4.23-11.371,5.662-17.054C51.475,9.897,50.202,8.319,46.944,8.58z M44.633,14.305
			c-2.186,1.712-5.043,1.778-8.273,1.891l-0.035,0.03l-5.047,5.446l-0.973,2.925c-0.143,0.658,0.094,1.012,0.717,1.058
			c3.725-0.106,7.438-0.189,10.775,0.086c2.15,0.697,2.273,1.93,0.371,3.697c-2.822,1.246-5.889,1.835-9.248,1.632
			c-0.639,0.729-1.258,1.478-1.938,2.164c-1.002,1.01-1.887,1.82-2.837,2.662c-0.602,0.286-0.937,0.037-1.002-0.748l1.473-6.854
			l-0.001-0.003c0.131-0.668,0-1.031-0.747-1.09l-3.754-0.229l-2.629,0.38l-8.557,2.294c-0.785,0.144-0.994-0.363-0.632-1.002
			l15.858-6.487l0.074-0.059l-10.538,0.26c-1.441,0.028-2.004-0.478-1.69-1.52l5.388-5.904c0.399-0.697,0.229-1.165-0.516-1.404
			l-5.79-1.204c-0.793-0.594-0.458-1.348,1.174-1.347l27.945-0.029C46.766,11.296,46.333,13.141,44.633,14.305z"/>
		<path fill="#FFFFFF" d="M24.226,18.662l4.182,1.881c0.708,0.15,1.272-0.14,1.692-0.765l2.312-7.705l-8.014,4.695
			C23.563,17.387,23.143,18.045,24.226,18.662z"/>
	</g>
	<g>
		<path fill="#FFFFFF" d="M-4.027,46.111h2.112v1.033h-4.186l2.388-3.709h-1.919V42.41h3.987L-4.027,46.111z"/>
		<path fill="#FFFFFF" d="M3.838,47.143h-1.2l-0.582-2.021c-0.032-0.115-0.085-0.333-0.161-0.633
			c-0.06,0.247-0.103,0.45-0.153,0.633l-0.577,2.021h-1.202l-1.338-4.732h1.308l0.541,2.26c0.061,0.242,0.105,0.479,0.143,0.709
			c0.053-0.246,0.112-0.482,0.167-0.709l0.596-2.26h1.041l0.6,2.248c0.11,0.424,0.142,0.666,0.148,0.695
			c0.064-0.295,0.112-0.527,0.149-0.695l0.555-2.248h1.303L3.838,47.143z"/>
		<path fill="#FFFFFF" d="M5.717,47.143V42.41h1.304v4.732H5.717z"/>
		<path fill="#FFFFFF" d="M11.676,47.534c0,0.235,0.18,0.349,0.379,0.349c0.188,0,0.247-0.02,0.388-0.059v0.668
			c-0.265,0.064-0.395,0.096-0.788,0.096c-0.465,0-0.807-0.269-0.807-0.723c0-0.297,0.127-0.537,0.34-0.723h-0.032l-0.239-0.848
			h-1.83l-0.244,0.848H7.555l1.634-4.732h1.614l1.64,4.732C11.849,47.143,11.676,47.328,11.676,47.534z M10.165,43.812
			c-0.028-0.072-0.071-0.287-0.161-0.633c-0.083,0.346-0.143,0.561-0.163,0.633l-0.478,1.559h1.287L10.165,43.812z"/>
		<path fill="#FFFFFF" d="M14.797,46.111h2.11v1.033h-4.185l2.389-3.709h-1.919V42.41h3.987L14.797,46.111z"/>
		<path fill="#FFFFFF" d="M17.731,47.143V42.41h2.901v1.041h-1.641v0.817h1.551v1.015h-1.551v0.803h1.64v1.059h-2.9V47.143z"/>
		<path fill="#FFFFFF" d="M24.418,47.143l-1.544-2.123v2.123h-1.278V42.41h1.278v2.15l1.496-2.15h1.505l-1.749,2.312l1.898,2.42
			H24.418z"/>
		<path fill="#FFFFFF" d="M31.358,45.367c-0.324,0.191-0.689,0.211-1.129,0.211c-0.104,0-0.205,0-0.311,0h-0.23v1.564h-1.217V42.41
			h1.352c0.031,0,0.062,0,0.096,0c0.594,0,1.066,0.007,1.436,0.246c0.42,0.264,0.668,0.756,0.668,1.361
			C32.022,44.642,31.786,45.113,31.358,45.367z M29.946,43.43h-0.258v1.111h0.244c0.549,0,0.832-0.104,0.832-0.562
			C30.764,43.523,30.467,43.43,29.946,43.43z"/>
		<path fill="#FFFFFF" d="M36.846,46.541c-0.484,0.467-1.131,0.723-1.795,0.723c-0.576,0-1.156-0.201-1.607-0.566
			c-0.6-0.471-0.928-1.15-0.928-1.91c0-0.678,0.262-1.285,0.746-1.757c0.477-0.465,1.123-0.729,1.789-0.729
			c0.664,0,1.314,0.265,1.795,0.729c0.482,0.472,0.738,1.081,0.738,1.757C37.584,45.456,37.323,46.076,36.846,46.541z
			 M35.051,43.391c-0.729,0-1.238,0.62-1.238,1.391c0,0.786,0.48,1.391,1.238,1.391c0.736,0,1.236-0.615,1.236-1.391
			C36.292,44.018,35.774,43.391,35.051,43.391z"/>
		<path fill="#FFFFFF" d="M38.426,47.143V42.41h1.293v3.627h1.602v1.105H38.426z"/>
		<path fill="#FFFFFF" d="M43.42,47.264c-0.67,0-1.174-0.206-1.676-0.691l0.578-0.964c0.379,0.433,0.752,0.653,1.125,0.653
			c0.361,0,0.586-0.212,0.586-0.488c0-0.383-0.26-0.49-0.793-0.632c-0.854-0.22-1.271-0.567-1.271-1.311
			c0-0.878,0.643-1.538,1.641-1.538c0.529,0,0.994,0.145,1.4,0.428l-0.402,0.924c-0.303-0.252-0.623-0.376-0.912-0.376
			c-0.316,0-0.521,0.181-0.521,0.401c0,0.336,0.322,0.408,0.754,0.523c0.838,0.219,1.305,0.537,1.305,1.408
			C45.235,46.586,44.532,47.264,43.42,47.264z"/>
		<path fill="#FFFFFF" d="M48.854,47.143l-1.545-2.123v2.123H46.03V42.41h1.279v2.15l1.5-2.15h1.508l-1.752,2.312l1.898,2.42H48.854
			z"/>
		<path fill="#FFFFFF" d="M50.961,47.143V42.41h1.303v4.732H50.961z"/>
		<path fill="#FFFFFF" d="M55.524,47.259c-1.395,0-2.4-1.054-2.4-2.479c0-1.437,1.004-2.489,2.4-2.489
			c0.428,0,0.822,0.105,1.227,0.3V44c-0.338-0.387-0.67-0.564-1.088-0.564c-0.75,0-1.248,0.564-1.248,1.369
			c0,0.728,0.494,1.316,1.248,1.316c0.418,0,0.748-0.186,1.088-0.567v1.407C56.348,47.162,55.952,47.259,55.524,47.259z"/>
		<path fill="#FFFFFF" d="M60.686,47.143v-1.924h-1.725v1.924h-1.293V42.41h1.293v1.839h1.725V42.41h1.291v4.732H60.686z"/>
		<path fill="#FFFFFF" d="M-8.485,54.891l-0.238-0.846h-1.834l-0.244,0.846h-1.289l1.634-4.732h1.616l1.638,4.732H-8.485z
			 M-9.479,51.557c-0.024-0.07-0.071-0.281-0.161-0.631c-0.084,0.35-0.142,0.562-0.16,0.631l-0.478,1.562h1.286L-9.479,51.557z"/>
		<path fill="#FFFFFF" d="M-4.378,54.891l-1.084-1.852v1.852h-1.214v-4.732h1.351c0.027,0,0.052,0,0.077,0
			c0.659,0,1.161,0.008,1.568,0.316c0.342,0.266,0.529,0.666,0.529,1.156c0,0.735-0.373,1.21-1.066,1.358l1.291,1.901H-4.378z
			 M-5.205,51.151h-0.258v1.241h0.24c0.543,0,0.8-0.17,0.8-0.588C-4.423,51.309-4.668,51.151-5.205,51.151z"/>
		<path fill="#FFFFFF" d="M-0.348,51.275v3.615h-1.291v-3.615H-2.69v-1.117h3.401v1.117H-0.348z"/>
		<path fill="#FFFFFF" d="M3.815,52.735v2.155H2.569v-2.155l-1.661-2.577h1.491l0.633,1.215c0.031,0.07,0.111,0.188,0.161,0.406
			c0.042-0.211,0.12-0.328,0.159-0.406l0.632-1.215h1.485L3.815,52.735z"/>
		<path fill="#FFFFFF" d="M6.986,55.014c-0.671,0-1.175-0.206-1.681-0.689l0.584-0.964c0.372,0.435,0.748,0.651,1.123,0.651
			c0.362,0,0.589-0.211,0.589-0.49c0-0.384-0.261-0.489-0.797-0.631c-0.851-0.221-1.271-0.567-1.271-1.31
			c0-0.88,0.646-1.537,1.639-1.537c0.529,0,0.997,0.144,1.402,0.427l-0.398,0.923c-0.303-0.251-0.622-0.372-0.913-0.372
			c-0.315,0-0.523,0.174-0.523,0.4c0,0.334,0.325,0.405,0.756,0.523C8.335,52.164,8.8,52.48,8.8,53.35
			C8.801,54.336,8.098,55.014,6.986,55.014z"/>
		<path fill="#FFFFFF" d="M11.499,51.275v3.615h-1.291v-3.615H9.157v-1.117h3.402v1.117H11.499z"/>
		<path fill="#FFFFFF" d="M17.239,54.29c-0.484,0.465-1.129,0.724-1.795,0.724c-0.572,0-1.154-0.2-1.606-0.569
			c-0.6-0.469-0.924-1.149-0.924-1.905c0-0.684,0.26-1.288,0.743-1.758c0.479-0.465,1.123-0.732,1.788-0.732
			c0.666,0,1.319,0.268,1.795,0.732c0.484,0.473,0.737,1.084,0.737,1.758C17.978,53.203,17.719,53.826,17.239,54.29z M15.443,51.138
			c-0.73,0-1.238,0.622-1.238,1.396c0,0.785,0.483,1.39,1.238,1.39c0.736,0,1.24-0.613,1.24-1.39
			C16.685,51.767,16.169,51.138,15.443,51.138z M15.711,49.654h-0.827l0.588-1.116h1.101L15.711,49.654z"/>
		<path fill="#FFFFFF" d="M23.387,54.891h-1.2l-0.582-2.02c-0.034-0.117-0.085-0.328-0.162-0.633
			c-0.061,0.246-0.105,0.453-0.152,0.633l-0.576,2.02h-1.202l-1.336-4.732h1.305l0.542,2.26c0.06,0.241,0.104,0.48,0.144,0.713
			c0.05-0.251,0.111-0.488,0.167-0.713l0.595-2.26h1.04l0.6,2.246c0.109,0.428,0.141,0.667,0.149,0.7
			c0.064-0.297,0.109-0.53,0.148-0.7l0.554-2.246h1.305L23.387,54.891z"/>
		<path fill="#FFFFFF" d="M30.129,53.117c-0.324,0.195-0.693,0.212-1.131,0.212c-0.104,0-0.205,0-0.311,0h-0.231v1.562h-1.214
			v-4.732h1.349c0.031,0,0.065,0,0.095,0c0.596,0,1.068,0.008,1.436,0.244c0.418,0.268,0.664,0.758,0.664,1.366
			C30.788,52.393,30.555,52.864,30.129,53.117z M28.715,51.18h-0.26v1.108H28.7c0.551,0,0.836-0.101,0.836-0.561
			C29.538,51.273,29.239,51.18,28.715,51.18z"/>
		<path fill="#FFFFFF" d="M31.459,54.891v-4.732h1.291v3.631h1.602v1.101L31.459,54.891L31.459,54.891z"/>
		<path fill="#FFFFFF" d="M38.293,54.891l-0.24-0.846h-1.836l-0.246,0.846H34.69l1.633-4.732h1.613l1.641,4.732H38.293z
			 M37.299,51.557c-0.029-0.07-0.072-0.281-0.162-0.631c-0.086,0.35-0.141,0.562-0.162,0.631l-0.48,1.562h1.285L37.299,51.557z"/>
		<path fill="#FFFFFF" d="M41.52,55.014c-0.674,0-1.176-0.206-1.682-0.689l0.582-0.964c0.373,0.435,0.746,0.651,1.123,0.651
			c0.361,0,0.586-0.211,0.586-0.49c0-0.384-0.262-0.489-0.795-0.631c-0.854-0.221-1.271-0.567-1.271-1.31
			c0-0.88,0.645-1.537,1.641-1.537c0.529,0,0.996,0.144,1.398,0.427l-0.4,0.923c-0.305-0.251-0.623-0.372-0.91-0.372
			c-0.318,0-0.523,0.174-0.523,0.4c0,0.334,0.326,0.405,0.754,0.523c0.84,0.219,1.307,0.535,1.307,1.404
			C43.331,54.336,42.627,55.014,41.52,55.014z"/>
		<path fill="#FFFFFF" d="M46.032,51.275v3.615h-1.293v-3.615h-1.053v-1.117h3.404v1.117H46.032z"/>
		<path fill="#FFFFFF" d="M50.196,52.735v2.155h-1.248v-2.155l-1.658-2.577h1.49l0.633,1.215c0.029,0.07,0.109,0.188,0.162,0.406
			c0.039-0.211,0.119-0.328,0.156-0.406l0.637-1.215h1.477L50.196,52.735z"/>
		<path fill="#FFFFFF" d="M55.069,54.891l-1.541-2.12v2.12h-1.279v-4.732h1.279v2.152l1.5-2.152h1.502l-1.75,2.313l1.896,2.418
			L55.069,54.891L55.069,54.891z"/>
		<path fill="#FFFFFF" d="M60.975,54.29c-0.482,0.465-1.129,0.724-1.793,0.724c-0.576,0-1.156-0.2-1.607-0.569
			c-0.602-0.469-0.924-1.149-0.924-1.905c0-0.684,0.256-1.288,0.742-1.758c0.477-0.465,1.123-0.732,1.789-0.732
			c0.664,0,1.316,0.268,1.793,0.732c0.486,0.473,0.738,1.084,0.738,1.758C61.711,53.203,61.456,53.826,60.975,54.29z M59.182,51.138
			c-0.73,0-1.238,0.622-1.238,1.396c0,0.785,0.484,1.39,1.238,1.39c0.736,0,1.236-0.613,1.236-1.39
			C60.418,51.767,59.905,51.138,59.182,51.138z M59.448,49.654h-0.83l0.586-1.116h1.105L59.448,49.654z"/>
		<path fill="#FFFFFF" d="M67.124,54.891h-1.199l-0.584-2.02c-0.035-0.117-0.084-0.328-0.16-0.633
			c-0.059,0.246-0.104,0.453-0.158,0.633l-0.57,2.02H63.25l-1.338-4.732h1.303l0.541,2.26c0.059,0.241,0.107,0.48,0.145,0.713
			c0.053-0.251,0.109-0.488,0.168-0.713l0.594-2.26H65.7l0.604,2.246c0.109,0.428,0.143,0.667,0.148,0.7
			c0.064-0.297,0.111-0.53,0.15-0.7l0.555-2.246h1.305L67.124,54.891z"/>
	</g>
</g>
</svg>
