<?xml version="1.0" encoding="utf-8"?>
<!-- Generator: Adobe Illustrator 16.0.4, SVG Export Plug-In . SVG Version: 6.00 Build 0)  -->
<svg version="1.2" baseProfile="tiny" id="Layer_1" xmlns="http://www.w3.org/2000/svg" xmlns:xlink="http://www.w3.org/1999/xlink"
	 x="0px" y="0px" width="25px" height="32px" viewBox="0 0 25 32" xml:space="preserve">
<polygon fill="none" stroke="#888888" stroke-width="2" stroke-miterlimit="10" points="24,6.774 24,31 1,31 1,1 18.345,1 "/>
<polyline fill="none" stroke="#888888" stroke-width="2" stroke-miterlimit="10" points="17.495,0 17.495,7.625 25,7.625 "/>
</svg>
