<?xml version="1.0" encoding="utf-8"?>
<!-- Generator: Adobe Illustrator 16.0.4, SVG Export Plug-In . SVG Version: 6.00 Build 0)  -->
<svg version="1.2" baseProfile="tiny" id="Layer_1" xmlns="http://www.w3.org/2000/svg" xmlns:xlink="http://www.w3.org/1999/xlink"
	 x="0px" y="0px" width="1062.507px" height="1081.889px" viewBox="0 0 1062.507 1081.889" xml:space="preserve">
<g>
	<path fill="none" stroke="#FFFFFF" stroke-width="4" stroke-miterlimit="10" d="M1062.492,159.602L1062.492,159.602
		C915.864,159.602,797.002,88.145,797.002,0c0,88.145-118.869,159.602-265.756,159.602h-0.25
		C384.368,159.602,265.507,88.145,265.507,0c0,88.145-118.87,159.602-265.507,159.602"/>
	<path fill="none" stroke="#FFFFFF" stroke-width="4" stroke-miterlimit="10" d="M1062.492,520.52L1062.492,520.52
		c-146.628,0-265.489-71.457-265.489-159.602c0,88.145-118.869,159.602-265.756,159.602h-0.25
		c-146.628,0-265.489-71.457-265.489-159.602c0,88.145-118.87,159.602-265.507,159.602"/>
	<path fill="none" stroke="#FFFFFF" stroke-width="4" stroke-miterlimit="10" d="M1062.492,880.519L1062.492,880.519
		c-146.628,0-265.489-71.457-265.489-159.602c0,88.145-118.869,159.602-265.756,159.602h-0.25
		c-146.628,0-265.489-71.457-265.489-159.602c0,88.145-118.87,159.602-265.507,159.602"/>
	<path fill="none" stroke="#FFFFFF" stroke-width="4" stroke-miterlimit="10" d="M1062.492,340.074L1062.492,340.074
		c-146.628,0-265.489-71.457-265.489-159.602c0,88.146-118.869,159.602-265.756,159.602h-0.25
		c-146.628,0-265.489-71.457-265.489-159.602c0,88.146-118.87,159.602-265.507,159.602"/>
	<path fill="none" stroke="#FFFFFF" stroke-width="4" stroke-miterlimit="10" d="M1062.492,700.992L1062.492,700.992
		c-146.628,0-265.489-71.457-265.489-159.602c0,88.145-118.869,159.602-265.756,159.602h-0.25
		c-146.628,0-265.489-71.457-265.489-159.602c0,88.145-118.87,159.602-265.507,159.602"/>
	<path fill="none" stroke="#FFFFFF" stroke-width="4" stroke-miterlimit="10" d="M1062.492,1060.992L1062.492,1060.992
		c-146.628,0-265.489-71.457-265.489-159.602c0,88.145-118.869,159.602-265.756,159.602h-0.25
		c-146.628,0-265.489-71.457-265.489-159.602c0,88.145-118.87,159.602-265.507,159.602"/>
	<path fill="none" stroke="#FFFFFF" stroke-width="4" stroke-miterlimit="10" d="M0.016,20.897L0.016,20.897
		c146.628,0,265.489,71.457,265.489,159.602c0-88.145,118.87-159.602,265.757-159.602h0.25C678.139,20.897,797,92.354,797,180.5
		c0-88.145,118.87-159.602,265.507-159.602"/>
	<path fill="none" stroke="#FFFFFF" stroke-width="4" stroke-miterlimit="10" d="M0.016,381.815L0.016,381.815
		c146.628,0,265.489,71.457,265.489,159.603c0-88.146,118.87-159.603,265.757-159.603h0.25C678.139,381.815,797,453.272,797,541.417
		c0-88.146,118.87-159.603,265.507-159.603"/>
	<path fill="none" stroke="#FFFFFF" stroke-width="4" stroke-miterlimit="10" d="M0.016,741.815L0.016,741.815
		c146.628,0,265.489,71.457,265.489,159.603c0-88.146,118.87-159.603,265.757-159.603h0.25C678.139,741.815,797,813.272,797,901.417
		c0-88.146,118.87-159.603,265.507-159.603"/>
	<path fill="none" stroke="#FFFFFF" stroke-width="4" stroke-miterlimit="10" d="M0.016,201.37L0.016,201.37
		c146.628,0,265.489,71.457,265.489,159.603c0-88.146,118.87-159.603,265.757-159.603h0.25C678.139,201.37,797,272.827,797,360.972
		c0-88.146,118.87-159.603,265.507-159.603"/>
	<path fill="none" stroke="#FFFFFF" stroke-width="4" stroke-miterlimit="10" d="M0.016,562.288L0.016,562.288
		c146.628,0,265.489,71.457,265.489,159.603c0-88.146,118.87-159.603,265.757-159.603h0.25C678.139,562.288,797,633.745,797,721.89
		c0-88.146,118.87-159.603,265.507-159.603"/>
	<path fill="none" stroke="#FFFFFF" stroke-width="4" stroke-miterlimit="10" d="M0.016,922.288L0.016,922.288
		c146.628,0,265.489,71.457,265.489,159.602c0-88.145,118.87-159.602,265.757-159.602h0.25
		c146.627,0,265.489,71.457,265.489,159.602c0-88.145,118.87-159.602,265.507-159.602"/>
</g>
</svg>
