<?xml version="1.0" encoding="utf-8"?>
<!-- Generator: Adobe Illustrator 16.0.4, SVG Export Plug-In . SVG Version: 6.00 Build 0)  -->
<svg version="1.2" baseProfile="tiny" id="Layer_1" xmlns="http://www.w3.org/2000/svg" xmlns:xlink="http://www.w3.org/1999/xlink"
	 x="0px" y="0px" width="240px" height="80px" viewBox="0 0 240 80" xml:space="preserve">
<g>
	<g>
		<path fill="#FFFFFF" d="M89.748,29.628v-0.541c-23.978-2.165-42.67-14.004-44.688-28.682h-0.369
			C42.674,15.083,23.979,26.923,0,29.087v0.541C19.539,30.555,34.316,34.845,34.316,40c0,5.153-14.777,9.444-34.316,10.371v0.541
			c23.978,2.166,42.674,14.004,44.691,28.682h0.369c2.018-14.678,20.71-26.516,44.688-28.682v-0.541
			C70.211,49.445,55.434,45.154,55.434,40C55.434,34.845,70.209,30.555,89.748,29.628"/>
	</g>
	<rect x="110.875" y="5.681" fill="#FFFFFF" width="2.142" height="13.195"/>
	<rect x="115.506" y="5.681" fill="#FFFFFF" width="2.142" height="13.195"/>
	<g>
		<path fill="#FFFFFF" d="M128.14,11.785c-1.457,0-2.646,1.242-2.646,2.844s1.189,2.844,2.646,2.844
			c1.439,0,2.629-1.242,2.629-2.844S129.597,11.785,128.14,11.785 M131.47,17.869c-0.918,0.882-2.09,1.35-3.35,1.35
			c-1.242,0-2.43-0.468-3.311-1.332c-0.9-0.899-1.387-2.016-1.387-3.275c0-1.242,0.486-2.377,1.387-3.24
			c0.881-0.865,2.068-1.332,3.311-1.332c1.26,0,2.432,0.45,3.332,1.349c0.881,0.865,1.385,1.981,1.385,3.224
			C132.837,15.888,132.353,17.004,131.47,17.869"/>
		<path fill="#FFFFFF" d="M138.662,11.766c-1.477,0-2.377,1.08-2.377,2.88c0,1.836,0.863,2.846,2.34,2.846
			c1.35,0,2.375-1.1,2.375-2.917C141,12.792,140.119,11.766,138.662,11.766 M138.535,22.91c-2.412,0-3.871-1.135-3.889-2.736h2.088
			c0.072,0.72,0.684,1.116,1.836,1.116c1.801,0,2.34-0.792,2.359-2.395l0.018-1.135c-0.703,0.991-1.621,1.458-2.826,1.458
			c-2.377,0-3.889-1.71-3.889-4.626c0-2.754,1.584-4.554,3.834-4.554c1.404,0,2.43,0.611,2.881,1.691v-1.404h1.963v8.011
			C142.91,21.542,141.847,22.91,138.535,22.91"/>
		<path fill="#FFFFFF" d="M149.697,8.795h-1.654l1.889-2.826h2.215L149.697,8.795z M149.5,11.785c-1.457,0-2.646,1.242-2.646,2.844
			s1.189,2.844,2.646,2.844c1.439,0,2.629-1.242,2.629-2.844S150.958,11.785,149.5,11.785 M152.83,17.869
			c-0.918,0.882-2.088,1.35-3.348,1.35c-1.242,0-2.432-0.468-3.312-1.332c-0.9-0.899-1.387-2.016-1.387-3.275
			c0-1.242,0.486-2.377,1.387-3.24c0.881-0.865,2.07-1.332,3.312-1.332c1.26,0,2.43,0.45,3.33,1.349
			c0.883,0.865,1.387,1.981,1.387,3.224C154.199,15.888,153.712,17.004,152.83,17.869"/>
	</g>
	<rect x="156.136" y="4.908" fill="#FFFFFF" width="1.963" height="13.969"/>
	<g>
		<path fill="#FFFFFF" d="M166.845,18.876v-4.393c0-1.908-0.252-2.79-1.873-2.79c-0.916,0-1.654,0.359-2.068,0.954
			c-0.344,0.521-0.379,1.261-0.379,2.341v3.888h-1.963v-8.551h1.838v1.404c0.811-1.205,1.818-1.692,3.312-1.692
			c1.277,0,2.178,0.415,2.682,1.188c0.414,0.666,0.414,1.422,0.414,2.466v5.185H166.845z"/>
		<path fill="#FFFFFF" d="M175.324,11.785c-1.457,0-2.645,1.242-2.645,2.844s1.188,2.844,2.645,2.844
			c1.441,0,2.629-1.242,2.629-2.844S176.783,11.785,175.324,11.785 M178.656,17.869c-0.918,0.882-2.088,1.35-3.348,1.35
			c-1.244,0-2.432-0.468-3.314-1.332c-0.898-0.899-1.385-2.016-1.385-3.275c0-1.242,0.486-2.377,1.385-3.24
			c0.883-0.865,2.07-1.332,3.314-1.332c1.26,0,2.43,0.45,3.33,1.349c0.881,0.865,1.385,1.981,1.385,3.224
			C180.023,15.888,179.537,17.004,178.656,17.869"/>
		<path fill="#FFFFFF" d="M186.146,11.766c-1.457,0-2.34,1.025-2.34,2.809c0,1.836,1.008,2.916,2.395,2.916
			c1.477,0,2.322-1.008,2.322-2.844C188.523,12.847,187.623,11.766,186.146,11.766 M186.687,19.219
			c-1.207,0-2.125-0.469-2.826-1.458v5.148h-1.963V10.326h1.963v1.404c0.449-1.08,1.494-1.692,2.898-1.692
			c2.25,0,3.816,1.8,3.816,4.556C190.576,17.509,189.062,19.219,186.687,19.219"/>
		<path fill="#FFFFFF" d="M196.685,11.785c-1.457,0-2.646,1.242-2.646,2.844s1.189,2.844,2.646,2.844
			c1.439,0,2.629-1.242,2.629-2.844S198.144,11.785,196.685,11.785 M200.015,17.869c-0.918,0.882-2.088,1.35-3.348,1.35
			c-1.242,0-2.432-0.468-3.312-1.332c-0.9-0.899-1.387-2.016-1.387-3.275c0-1.242,0.486-2.377,1.387-3.24
			c0.881-0.865,2.07-1.332,3.312-1.332c1.26,0,2.43,0.45,3.33,1.349c0.883,0.865,1.385,1.981,1.385,3.224
			C201.382,15.888,200.898,17.004,200.015,17.869"/>
	</g>
	<rect x="203.324" y="4.908" fill="#FFFFFF" width="1.961" height="13.969"/>
	<g>
		<path fill="#FFFFFF" d="M210.275,19.219c-1.656,0-2.754-0.595-3.367-1.891l1.621-0.882c0.234,0.846,0.881,1.296,1.908,1.296
			c0.9,0,1.404-0.432,1.404-1.116c0-0.882-0.848-0.972-2.018-1.458c-1.637-0.685-2.465-1.351-2.465-2.593
			c0-1.476,1.242-2.556,3.275-2.556c1.35,0,2.305,0.505,2.719,1.403l-1.369,0.955c-0.215-0.541-0.738-0.883-1.422-0.883
			c-0.756,0-1.242,0.378-1.242,0.973c0,0.828,0.918,0.972,2.25,1.493c1.494,0.595,2.197,1.298,2.197,2.539
			C213.767,18.157,212.507,19.219,210.275,19.219"/>
	</g>
	<polygon fill="#FFFFFF" points="221.353,18.876 217.519,14.466 217.519,18.876 215.556,18.876 215.556,4.908 217.519,4.908 
		217.519,13.872 221.101,10.326 223.513,10.326 219.644,14.088 223.875,18.876 	"/>
	<g>
		<path fill="#FFFFFF" d="M228.441,11.766c-1.477,0-2.377,1.081-2.377,2.881c0,1.836,0.865,2.844,2.342,2.844
			c1.35,0,2.377-1.098,2.377-2.916C230.783,12.792,229.9,11.766,228.441,11.766 M230.728,18.876V17.76
			c-0.703,0.99-1.621,1.458-2.826,1.458c-2.377,0-3.889-1.71-3.889-4.626c0-2.755,1.584-4.555,3.834-4.555
			c1.404,0,2.432,0.612,2.881,1.692v-1.404h1.961v8.551H230.728z"/>
		<path fill="#FFFFFF" d="M118.973,37.881l-1.98-4.446c-0.215-0.523-0.432-1.08-0.611-1.71c-0.287,0.81-0.486,1.368-0.594,1.62
			l-2.035,4.536l-4.428-9.073h2.088l1.909,4.123c0.144,0.288,0.305,0.864,0.431,1.728c0.018-0.558,0.217-1.025,0.45-1.548
			l2.069-4.608h0.182l2.123,4.608c0.234,0.522,0.379,0.99,0.396,1.548c0.107-0.666,0.289-1.224,0.504-1.71l1.891-4.141h2.052
			L118.973,37.881z"/>
		<path fill="#FFFFFF" d="M126.83,41.391h-2.016l2.34-4.77l-3.133-7.813h2.162l1.564,4.428c0.199,0.577,0.342,1.152,0.414,1.693
			c0.127-0.504,0.361-1.027,0.613-1.565l2.105-4.556h2.105L126.83,41.391z"/>
		<path fill="#FFFFFF" d="M136.435,37.701c-1.656,0-2.754-0.593-3.367-1.89l1.621-0.883c0.234,0.847,0.881,1.298,1.908,1.298
			c0.898,0,1.402-0.433,1.402-1.117c0-0.881-0.844-0.973-2.016-1.458c-1.637-0.685-2.465-1.351-2.465-2.592
			c0-1.478,1.242-2.557,3.275-2.557c1.35,0,2.305,0.504,2.719,1.404l-1.369,0.954c-0.215-0.54-0.738-0.882-1.422-0.882
			c-0.756,0-1.242,0.378-1.242,0.972c0,0.828,0.918,0.972,2.25,1.494c1.494,0.594,2.197,1.296,2.197,2.538
			C139.927,36.639,138.666,37.701,136.435,37.701"/>
	</g>
	<polygon fill="#FFFFFF" points="144.222,30.537 144.222,37.36 142.279,37.36 142.279,30.537 140.767,30.537 140.767,28.808 
		142.279,28.808 142.279,25.585 144.222,25.585 144.222,28.808 145.716,28.808 145.716,30.537 	"/>
	<g>
		<path fill="#FFFFFF" d="M151.025,30.249c-1.477,0-2.377,1.08-2.377,2.88c0,1.836,0.865,2.845,2.34,2.845
			c1.352,0,2.377-1.099,2.377-2.916C153.365,31.275,152.484,30.249,151.025,30.249 M153.312,37.36v-1.116
			c-0.703,0.989-1.621,1.457-2.826,1.457c-2.377,0-3.889-1.709-3.889-4.626c0-2.754,1.584-4.555,3.834-4.555
			c1.404,0,2.43,0.612,2.881,1.692v-1.404h1.961v8.552H153.312z"/>
		<path fill="#FFFFFF" d="M166.136,37.881l-1.98-4.446c-0.215-0.523-0.432-1.08-0.611-1.71c-0.289,0.81-0.486,1.368-0.594,1.62
			l-2.035,4.536l-4.428-9.073h2.088l1.908,4.123c0.143,0.288,0.307,0.864,0.432,1.728c0.018-0.558,0.217-1.025,0.449-1.548
			l2.07-4.608h0.182l2.123,4.608c0.234,0.522,0.379,0.99,0.396,1.548c0.107-0.666,0.287-1.224,0.504-1.71l1.891-4.141h2.053
			L166.136,37.881z"/>
		<path fill="#FFFFFF" d="M175.287,30.249c-1.475,0-2.375,1.08-2.375,2.88c0,1.836,0.865,2.845,2.34,2.845
			c1.352,0,2.377-1.099,2.377-2.916C177.628,31.275,176.746,30.249,175.287,30.249 M177.574,37.36v-1.116
			c-0.701,0.989-1.621,1.457-2.826,1.457c-2.377,0-3.889-1.709-3.889-4.626c0-2.754,1.584-4.555,3.836-4.555
			c1.404,0,2.43,0.612,2.879,1.692v-1.404h1.963v8.552H177.574z"/>
	</g>
	<polygon fill="#FFFFFF" points="109.271,55.831 114.043,49.007 109.758,49.007 109.758,47.28 117.211,47.28 112.566,54.121 
		117.211,54.121 117.211,55.831 	"/>
	<g>
		<path fill="#FFFFFF" d="M124.978,55.831v-4.393c0-1.908-0.252-2.791-1.871-2.791c-0.918,0-1.656,0.36-2.07,0.955
			c-0.344,0.521-0.379,1.26-0.379,2.34v3.889h-1.961V47.28h1.836v1.404c0.811-1.207,1.818-1.692,3.312-1.692
			c1.277,0,2.178,0.413,2.682,1.188c0.414,0.666,0.414,1.422,0.414,2.465v5.186H124.978z"/>
		<path fill="#FFFFFF" d="M133.263,48.719c-1.477,0-2.377,1.08-2.377,2.881c0,1.836,0.865,2.844,2.342,2.844
			c1.35,0,2.377-1.098,2.377-2.916C135.605,49.746,134.72,48.719,133.263,48.719 M135.55,55.831v-1.116
			c-0.701,0.99-1.621,1.458-2.826,1.458c-2.377,0-3.889-1.711-3.889-4.627c0-2.754,1.584-4.554,3.834-4.554
			c1.404,0,2.432,0.612,2.881,1.692V47.28h1.961v8.551H135.55z"/>
	</g>
	<polygon fill="#FFFFFF" points="145.755,55.831 141.921,51.419 141.921,55.831 139.958,55.831 139.958,41.86 141.921,41.86 
		141.921,50.826 145.503,47.28 147.916,47.28 144.044,51.042 148.275,55.831 	"/>
	<g>
		<path fill="#FFFFFF" d="M153.183,45.749h-1.654l1.889-2.826h2.213L153.183,45.749z M152.986,48.738
			c-1.457,0-2.646,1.242-2.646,2.845c0,1.602,1.189,2.844,2.646,2.844c1.439,0,2.629-1.242,2.629-2.844
			C155.615,49.98,154.443,48.738,152.986,48.738 M156.316,54.822c-0.918,0.882-2.088,1.351-3.35,1.351
			c-1.242,0-2.43-0.469-3.311-1.332c-0.9-0.899-1.387-2.017-1.387-3.276c0-1.242,0.486-2.376,1.387-3.241
			c0.881-0.863,2.068-1.332,3.311-1.332c1.262,0,2.432,0.451,3.332,1.352c0.881,0.863,1.385,1.979,1.385,3.222
			C157.683,52.842,157.199,53.958,156.316,54.822"/>
		<path fill="#FFFFFF" d="M167.494,56.352l-1.98-4.447c-0.215-0.521-0.432-1.078-0.611-1.709c-0.289,0.81-0.486,1.369-0.594,1.619
			l-2.035,4.537l-4.428-9.072h2.088l1.908,4.123c0.143,0.287,0.307,0.863,0.432,1.727c0.018-0.559,0.215-1.025,0.449-1.548
			l2.07-4.608h0.182l2.123,4.608c0.234,0.522,0.379,0.989,0.396,1.548c0.107-0.666,0.287-1.225,0.504-1.709l1.891-4.141h2.053
			L167.494,56.352z"/>
		<path fill="#FFFFFF" d="M114.207,67.208c-1.477,0-2.377,1.08-2.377,2.881c0,1.836,0.864,2.844,2.34,2.844
			c1.351,0,2.377-1.098,2.377-2.916C116.547,68.235,115.664,67.208,114.207,67.208 M114.08,78.351c-2.412,0-3.871-1.134-3.889-2.737
			h2.088c0.072,0.722,0.686,1.117,1.837,1.117c1.8,0,2.341-0.791,2.358-2.395l0.018-1.135c-0.701,0.992-1.619,1.459-2.826,1.459
			c-2.377,0-3.889-1.711-3.889-4.627c0-2.754,1.584-4.553,3.834-4.553c1.405,0,2.432,0.611,2.881,1.691v-1.404h1.963v8.01
			C118.455,76.983,117.393,78.351,114.08,78.351"/>
		<path fill="#FFFFFF" d="M125.886,67.532c-0.377-0.27-0.756-0.359-1.205-0.359c-1.387,0-1.818,1.098-1.818,3.402v3.744H120.9V65.75
			h1.962v1.388c0.414-1.135,1.08-1.658,2.123-1.658c0.541,0,1.08,0.127,1.604,0.379L125.886,67.532z"/>
		<path fill="#FFFFFF" d="M131.285,67.208c-1.477,0-2.377,1.08-2.377,2.881c0,1.836,0.865,2.844,2.34,2.844
			c1.352,0,2.377-1.098,2.377-2.915C133.625,68.234,132.742,67.208,131.285,67.208 M133.572,74.319v-1.117
			c-0.703,0.991-1.621,1.459-2.828,1.459c-2.375,0-3.887-1.709-3.887-4.627c0-2.754,1.584-4.554,3.834-4.554
			c1.404,0,2.43,0.612,2.881,1.692v-1.404h1.961v8.551H133.572z"/>
		<path fill="#FFFFFF" d="M152.421,74.661c-2.664,0-4.537-1.871-4.537-4.591c0-2.754,1.926-4.59,4.752-4.59
			c0.865,0,1.604,0.162,2.27,0.522v2.213c-0.596-0.647-1.404-1.025-2.357-1.025c-1.586,0-2.629,1.116-2.629,2.827
			c0,1.8,1.025,2.862,2.736,2.862c0.936,0,1.674-0.342,2.25-1.062v2.25C154.185,74.463,153.375,74.661,152.421,74.661"/>
	</g>
	<polygon fill="#FFFFFF" points="155.843,74.319 160.615,67.497 156.33,67.497 156.33,65.768 163.783,65.768 159.138,72.609 
		163.783,72.609 163.783,74.319 	"/>
	<g>
		<path fill="#FFFFFF" d="M171.552,74.319v-4.393c0-1.908-0.252-2.79-1.873-2.79c-0.918,0-1.656,0.36-2.07,0.954
			c-0.342,0.521-0.379,1.26-0.379,2.34v3.889h-1.961v-8.551h1.836v1.404c0.811-1.207,1.818-1.692,3.312-1.692
			c1.277,0,2.178,0.414,2.682,1.188c0.414,0.666,0.414,1.422,0.414,2.465v5.186H171.552z"/>
		<path fill="#FFFFFF" d="M177.238,78.351h-2.016l2.34-4.771l-3.133-7.812h2.162l1.566,4.428c0.197,0.576,0.342,1.152,0.412,1.692
			c0.127-0.504,0.361-1.026,0.613-1.565l2.105-4.555h2.105L177.238,78.351z"/>
		<path fill="#FFFFFF" d="M188.046,74.661c-2.664,0-4.537-1.871-4.537-4.591c0-2.754,1.926-4.59,4.752-4.59
			c0.865,0,1.602,0.162,2.268,0.522v2.213c-0.594-0.647-1.402-1.025-2.357-1.025c-1.584,0-2.627,1.116-2.627,2.827
			c0,1.8,1.025,2.862,2.734,2.862c0.938,0,1.674-0.342,2.25-1.062v2.25C189.81,74.463,189,74.661,188.046,74.661"/>
		<path fill="#FFFFFF" d="M198.853,74.319v-4.393c0-1.908-0.252-2.79-1.873-2.79c-0.918,0-1.656,0.36-2.07,0.954
			c-0.342,0.521-0.377,1.26-0.377,2.34v3.889h-1.963v-13.97h1.836v6.823c0.811-1.207,1.818-1.692,3.312-1.692
			c1.277,0,2.178,0.414,2.684,1.188c0.412,0.666,0.412,1.422,0.412,2.465v5.186H198.853z"/>
	</g>
	<rect x="144.005" y="65.768" fill="#FFFFFF" width="1.963" height="8.551"/>
	<g>
		<path fill="#FFFFFF" d="M142.208,60.249c-1.518,0-2.822,0.848-3.42,2.112c-0.32,0.743-0.357,1.563-0.357,2.36
			c0.002,0.238,0.006,0.477,0.006,0.714c0,0.014,0.002,0.333,0,0.333h-1.494v1.729h1.494v6.822h1.963v-6.822h2.051v-1.729H140.4
			c0-0.518,0.002-1.037-0.008-1.555c-0.014-0.855,0.318-1.724,1.166-2.067c0.199-0.08,0.438-0.132,0.65-0.134
			c1.074-0.006,1.842,0.908,1.844,1.908h1.832C145.882,61.838,144.291,60.249,142.208,60.249"/>
	</g>
</g>
</svg>
